\select@language {brazil}
\contentsline {figure}{\numberline {1}{\ignorespaces Hierarquia de algumas classes Java que representam exce\c c\~oes\relax }}{20}
\contentsline {figure}{\numberline {2}{\ignorespaces Passos utilizados para a coleta e an\'alise das entrevistas semiestruturadas\relax }}{28}
\contentsline {figure}{\numberline {3}{\ignorespaces Tempo de experi\^encia profissional dos participantes do \textit {survey} de valida\c c\~ao\relax }}{39}
\contentsline {figure}{\numberline {4}{\ignorespaces Resultados do \textit {survey} de valida\c c\~ao para a QP1\relax }}{40}
\contentsline {figure}{\numberline {5}{\ignorespaces Resultados do \textit {survey} de valida\c c\~ao para a QP2\relax }}{41}
\contentsline {figure}{\numberline {6}{\ignorespaces Resultados do \textit {survey} de valida\c c\~ao para a QP3\relax }}{43}
\contentsline {figure}{\numberline {7}{\ignorespaces Funcionamento da ferramenta ECL/DAEH. Fonte: \cite {abrantes2016tese}\relax }}{52}
\contentsline {figure}{\numberline {8}{\ignorespaces Exemplo de contrato especificado na linguagem ECL. Fonte: \cite {abrantes2016tese}\relax }}{53}
\contentsline {figure}{\numberline {9}{\ignorespaces Exemplo da constru\c c\~ao cannotHandle\relax }}{54}
\contentsline {figure}{\numberline {10}{\ignorespaces Vis\~ao geral da ferramenta ExceptionPolicyExpert\relax }}{54}
\contentsline {figure}{\numberline {11}{\ignorespaces Diagrama de sequ\^encia das opera\c c\~oes do m\'odulo de verifica\c c\~oes\relax }}{55}
\contentsline {figure}{\numberline {12}{\ignorespaces Exemplo de pol\IeC {\'\i }tica de tratamento de exce\c c\~oes especificada em ECL\relax }}{57}
\contentsline {figure}{\numberline {13}{\ignorespaces Verifica\c c\~ao de sinaliza\c c\~ao indevida\relax }}{58}
\contentsline {figure}{\numberline {14}{\ignorespaces Verifica\c c\~ao de tratamento indevido\relax }}{60}
\contentsline {figure}{\numberline {15}{\ignorespaces Verifica\c c\~ao de poss\IeC {\'\i }veis tratadores\relax }}{61}
\contentsline {figure}{\numberline {16}{\ignorespaces Exemplo de escala Likert usada no \textit {survey} de valida\c c\~ao\relax }}{88}
