\relax 
\catcode `"\active 
\@input{Includes/Capa.aux}
\select@language{brazil}
\@writefile{toc}{\select@language{brazil}}
\@writefile{lof}{\select@language{brazil}}
\@writefile{lot}{\select@language{brazil}}
\@input{Includes/FolhaRosto.aux}
\@input{Includes/FolhaAprovacao.aux}
\@input{Includes/Agradecimentos.aux}
\@input{Includes/Resumo.aux}
\@input{Includes/Abstract.aux}
\citation{abrantes2016tese}
\citation{abrantes2016tese}
\@input{Capitulos/Introducao.aux}
\@input{Capitulos/Capitulo2.aux}
\@input{Capitulos/Capitulo3.aux}
\@input{Capitulos/Capitulo4.aux}
\@input{Capitulos/Capitulo5.aux}
\@input{Capitulos/Capitulo6.aux}
\@input{Capitulos/Consideracoes.aux}
\citation{*}
\bibstyle{abnt-alf}
\bibdata{Capitulos/Referencias}
\bibcite{abrantes2015specifying}{Abrantes e Coelho 2015}
\bibcite{abrantes2015specifying++EXPL}{Abrantes e Coelho}
\bibcite{abrantes2015specifying++IMPL}{ABRANTES; COELHO}
\bibcite{abrantes2015specifying++YEAR}{2015}
\bibcite{abrantes2016tese}{Abrantes 2016}
\bibcite{abrantes2016tese++EXPL}{Abrantes}
\bibcite{abrantes2016tese++IMPL}{ABRANTES}
\bibcite{abrantes2016tese++YEAR}{2016}
\bibcite{barbosa2015mastering}{Barbosa 2015}
\bibcite{barbosa2015mastering++EXPL}{Barbosa}
\bibcite{barbosa2015mastering++IMPL}{BARBOSA}
\bibcite{barbosa2015mastering++YEAR}{2015}
\bibcite{barbosa2014categorizing}{Barbosa, Garcia e Barbosa 2014}
\bibcite{barbosa2014categorizing++EXPL}{Barbosa, Garcia e Barbosa}
\bibcite{barbosa2014categorizing++IMPL}{BARBOSA; GARCIA; BARBOSA}
\bibcite{barbosa2014categorizing++YEAR}{2014}
\bibcite{barbosa2012heuristic}{Barbosa, Garcia e Mezini 2012}
\bibcite{barbosa2012heuristic++EXPL}{Barbosa, Garcia e Mezini}
\bibcite{barbosa2012heuristic++IMPL}{BARBOSA; GARCIA; MEZINI}
\bibcite{barbosa2012heuristic++YEAR}{2012}
\bibcite{barbosaenforcing}{Barbosa et al. 2016}
\bibcite{barbosaenforcing++EXPL}{Barbosa et al.}
\bibcite{barbosaenforcing++IMPL}{BARBOSA et al.}
\bibcite{barbosaenforcing++YEAR}{2016}
\bibcite{bloch2008effective}{Bloch 2008}
\bibcite{bloch2008effective++EXPL}{Bloch}
\bibcite{bloch2008effective++IMPL}{BLOCH}
\bibcite{bloch2008effective++YEAR}{2008}
\bibcite{charmaz2014constructing}{Charmaz 2014}
\bibcite{charmaz2014constructing++EXPL}{Charmaz}
\bibcite{charmaz2014constructing++IMPL}{CHARMAZ}
\bibcite{charmaz2014constructing++YEAR}{2014}
\bibcite{de2008analyzing}{Coelho 2008}
\bibcite{de2008analyzing++EXPL}{Coelho}
\bibcite{de2008analyzing++IMPL}{COELHO}
\bibcite{de2008analyzing++YEAR}{2008}
\bibcite{ebert2013study}{Ebert e Castor 2013}
\bibcite{ebert2013study++EXPL}{Ebert e Castor}
\bibcite{ebert2013study++IMPL}{EBERT; CASTOR}
\bibcite{ebert2013study++YEAR}{2013}
\bibcite{ebert2015exploratory}{Ebert, Castor e Serebrenik 2015}
\bibcite{ebert2015exploratory++EXPL}{Ebert, Castor e Serebrenik}
\bibcite{ebert2015exploratory++IMPL}{EBERT; CASTOR; SEREBRENIK}
\bibcite{ebert2015exploratory++YEAR}{2015}
\bibcite{garcia2001comparative}{Garcia et al. 2001}
\bibcite{garcia2001comparative++EXPL}{Garcia et al.}
\bibcite{garcia2001comparative++IMPL}{GARCIA et al.}
\bibcite{garcia2001comparative++YEAR}{2001}
\bibcite{glaser2001grounded}{Glaser 2001}
\bibcite{glaser2001grounded++EXPL}{Glaser}
\bibcite{glaser2001grounded++IMPL}{GLASER}
\bibcite{glaser2001grounded++YEAR}{2001}
\bibcite{glaser1967discovery}{Glaser et al. 1967}
\bibcite{glaser1967discovery++EXPL}{Glaser et al.}
\bibcite{glaser1967discovery++IMPL}{GLASER et al.}
\bibcite{glaser1967discovery++YEAR}{1967}
\@writefile{toc}{\contentsline {chapter}{Refer\^encias}{78}}
\bibcite{goodenough1975exception}{Goodenough 1975}
\bibcite{goodenough1975exception++EXPL}{Goodenough}
\bibcite{goodenough1975exception++IMPL}{GOODENOUGH}
\bibcite{goodenough1975exception++YEAR}{1975}
\bibcite{goulding1999grounded}{Goulding 1999}
\bibcite{goulding1999grounded++EXPL}{Goulding}
\bibcite{goulding1999grounded++IMPL}{GOULDING}
\bibcite{goulding1999grounded++YEAR}{1999}
\bibcite{greiler2012test}{Greiler, Deursen e Storey 2012}
\bibcite{greiler2012test++EXPL}{Greiler, Deursen e Storey}
\bibcite{greiler2012test++IMPL}{GREILER; DEURSEN; STOREY}
\bibcite{greiler2012test++YEAR}{2012}
\bibcite{jakobus2015contrasting}{Jakobus et al. 2015}
\bibcite{jakobus2015contrasting++EXPL}{Jakobus et al.}
\bibcite{jakobus2015contrasting++IMPL}{JAKOBUS et al.}
\bibcite{jakobus2015contrasting++YEAR}{2015}
\bibcite{sales2013abordagem}{Junior 2013}
\bibcite{sales2013abordagem++EXPL}{Junior}
\bibcite{sales2013abordagem++IMPL}{JUNIOR}
\bibcite{sales2013abordagem++YEAR}{2013}
\bibcite{kienzle2008exceptions}{Kienzle 2008}
\bibcite{kienzle2008exceptions++EXPL}{Kienzle}
\bibcite{kienzle2008exceptions++IMPL}{KIENZLE}
\bibcite{kienzle2008exceptions++YEAR}{2008}
\bibcite{laprie1985dependable}{Laprie 1985}
\bibcite{laprie1985dependable++EXPL}{Laprie}
\bibcite{laprie1985dependable++IMPL}{LAPRIE}
\bibcite{laprie1985dependable++YEAR}{1985}
\bibcite{de2001exception}{Lemos e Romanovsky 2001}
\bibcite{de2001exception++EXPL}{Lemos e Romanovsky}
\bibcite{de2001exception++IMPL}{LEMOS; ROMANOVSKY}
\bibcite{de2001exception++YEAR}{2001}
\bibcite{marinescu2011classes}{Marinescu 2011}
\bibcite{marinescu2011classes++EXPL}{Marinescu}
\bibcite{marinescu2011classes++IMPL}{MARINESCU}
\bibcite{marinescu2011classes++YEAR}{2011}
\bibcite{marinescu2013should}{Marinescu 2013}
\bibcite{marinescu2013should++EXPL}{Marinescu}
\bibcite{marinescu2013should++IMPL}{MARINESCU}
\bibcite{marinescu2013should++YEAR}{2013}
\bibcite{melo2013depth}{Melo et al. 2013}
\bibcite{melo2013depth++EXPL}{Melo et al.}
\bibcite{melo2013depth++IMPL}{MELO et al.}
\bibcite{melo2013depth++YEAR}{2013}
\bibcite{montoni2010investigaccao}{Montoni 2010}
\bibcite{montoni2010investigaccao++EXPL}{Montoni}
\bibcite{montoni2010investigaccao++IMPL}{MONTONI}
\bibcite{montoni2010investigaccao++YEAR}{2010}
\bibcite{ng2008grounded}{Ng e Hase 2008}
\bibcite{ng2008grounded++EXPL}{Ng e Hase}
\bibcite{ng2008grounded++IMPL}{NG; HASE}
\bibcite{ng2008grounded++YEAR}{2008}
\bibcite{radatz1990ieee}{Radatz, Geraci e Katki 1990}
\bibcite{radatz1990ieee++EXPL}{Radatz, Geraci e Katki}
\bibcite{radatz1990ieee++IMPL}{RADATZ; GERACI; KATKI}
\bibcite{radatz1990ieee++YEAR}{1990}
\bibcite{rahman2014use}{Rahman e Roy 2014}
\bibcite{rahman2014use++EXPL}{Rahman e Roy}
\bibcite{rahman2014use++IMPL}{RAHMAN; ROY}
\bibcite{rahman2014use++YEAR}{2014}
\bibcite{sawadpong2012exception}{Sawadpong, Allen e Williams 2012}
\bibcite{sawadpong2012exception++EXPL}{Sawadpong, Allen e Williams}
\bibcite{sawadpong2012exception++IMPL}{SAWADPONG; ALLEN; WILLIAMS}
\bibcite{sawadpong2012exception++YEAR}{2012}
\bibcite{sena2016understanding}{Sena et al. 2016}
\bibcite{sena2016understanding++EXPL}{Sena et al.}
\bibcite{sena2016understanding++IMPL}{SENA et al.}
\bibcite{sena2016understanding++YEAR}{2016}
\bibcite{shah2008visualization}{Shah, G{\"o}rg e Harrold 2008}
\bibcite{shah2008visualization++EXPL}{Shah, G{\"o}rg e Harrold}
\bibcite{shah2008visualization++IMPL}{SHAH; G{\"O}RG; HARROLD}
\bibcite{shah2008visualization++YEAR}{2008a}
\bibcite{shah2008developers}{Shah, G{\"o}rg e Harrold 2008}
\bibcite{shah2008developers++EXPL}{Shah, G{\"o}rg e Harrold}
\bibcite{shah2008developers++IMPL}{SHAH; G{\"O}RG; HARROLD}
\bibcite{shah2008developers++YEAR}{2008b}
\bibcite{shah2010understanding}{Shah, Gorg e Harrold 2010}
\bibcite{shah2010understanding++EXPL}{Shah, Gorg e Harrold}
\bibcite{shah2010understanding++IMPL}{SHAH; GORG; HARROLD}
\bibcite{shah2010understanding++YEAR}{2010}
\bibcite{shahrokni2013systematic}{Shahrokni e Feldt 2013}
\bibcite{shahrokni2013systematic++EXPL}{Shahrokni e Feldt}
\bibcite{shahrokni2013systematic++IMPL}{SHAHROKNI; FELDT}
\bibcite{shahrokni2013systematic++YEAR}{2013}
\bibcite{van1999goal}{Solingen e Berghout 1999}
\bibcite{van1999goal++EXPL}{Solingen e Berghout}
\bibcite{van1999goal++IMPL}{SOLINGEN; BERGHOUT}
\bibcite{van1999goal++YEAR}{1999}
\bibcite{stol2016grounded}{Stol, Ralph e Fitzgerald 2016}
\bibcite{stol2016grounded++EXPL}{Stol, Ralph e Fitzgerald}
\bibcite{stol2016grounded++IMPL}{STOL; RALPH; FITZGERALD}
\bibcite{stol2016grounded++YEAR}{2016}
\bibcite{wirfs2006toward}{Wirfs-Brock 2006}
\bibcite{wirfs2006toward++EXPL}{Wirfs-Brock}
\bibcite{wirfs2006toward++IMPL}{WIRFS-BROCK}
\bibcite{wirfs2006toward++YEAR}{2006}
\@input{Capitulos/ApendiceA.aux}
\@input{Capitulos/ApendiceB.aux}
\@input{Capitulos/ApendiceC.aux}
\@input{Capitulos/ApendiceD.aux}
\@input{Capitulos/ApendiceE.aux}
