\relax 
\citation{basili1994encyclopedia}
\@writefile{toc}{\contentsline {chapter}{\numberline {5}Cap\IeC {\'\i }tulo 5}{42}}
\newlabel{cap_estudo}{{5}{42}}
\@writefile{toc}{\contentsline {section}{\numberline {5.1}Planejamento do Estudo}{42}}
\newlabel{sec_planejamento_estudo}{{5.1}{42}}
\@writefile{toc}{\contentsline {subsection}{\numberline {5.1.1}Hip\'oteses}{42}}
\newlabel{subsec_hipoteses}{{5.1.1}{42}}
\gdef \LT@iii {\LT@entry 
    {1}{98.15825pt}\LT@entry 
    {1}{97.75826pt}\LT@entry 
    {1}{268.4748pt}\LT@entry 
    {1}{0.0pt}}
\@writefile{toc}{\contentsline {subsection}{\numberline {5.1.2}Vari\'aveis de pesquisa}{43}}
\newlabel{subsec_var_pesq}{{5.1.2}{43}}
\@writefile{lot}{\contentsline {table}{\numberline {3}{\ignorespaces Vari\'aveis dependentes e independentes do estudo.}}{43}}
\newlabel{table:variaveis_estudo}{{3}{43}}
\citation{hunter1978statistics}
\@writefile{toc}{\contentsline {subsection}{\numberline {5.1.3}Sele\c c\~ao dos participantes}{45}}
\newlabel{subsec_seelecao_participantes}{{5.1.3}{45}}
\@writefile{toc}{\contentsline {subsection}{\numberline {5.1.4}Design do Estudo}{45}}
\newlabel{subsec_design_estudo}{{5.1.4}{45}}
\@writefile{lof}{\contentsline {figure}{\numberline {13}{\ignorespaces Os dois quadrados latino que ser\~ao utilizados no estudo\relax }}{45}}
\newlabel{fig:quadrado_latino}{{13}{45}}
\@writefile{toc}{\contentsline {section}{\numberline {5.2}Defini\c c\~ao do estudo}{46}}
\newlabel{sec_definicao_estudo}{{5.2}{46}}
\@writefile{toc}{\contentsline {section}{\numberline {5.3}Coleta de dados e interpreta\c c\~ao dos resultados}{46}}
\newlabel{sec_coleta_estudo}{{5.3}{46}}
\@setckpt{Capitulos/Capitulo5}{
\setcounter{page}{47}
\setcounter{equation}{0}
\setcounter{enumi}{4}
\setcounter{enumii}{0}
\setcounter{enumiii}{0}
\setcounter{enumiv}{0}
\setcounter{footnote}{0}
\setcounter{mpfootnote}{0}
\setcounter{part}{0}
\setcounter{chapter}{5}
\setcounter{section}{3}
\setcounter{subsection}{0}
\setcounter{subsubsection}{0}
\setcounter{paragraph}{0}
\setcounter{subparagraph}{0}
\setcounter{figure}{13}
\setcounter{table}{3}
\setcounter{parentequation}{0}
\setcounter{ABCIaux}{0}
\setcounter{ABCImax}{0}
\setcounter{float@type}{16}
\setcounter{algorithm}{0}
\setcounter{ALC@unique}{0}
\setcounter{ALC@line}{0}
\setcounter{ALC@rem}{0}
\setcounter{ALC@depth}{0}
\setcounter{LT@tables}{3}
\setcounter{LT@chunks}{1}
\setcounter{AM@survey}{0}
\setcounter{lstnumber}{1}
\setcounter{ContinuedFloat}{0}
\setcounter{lstlisting}{0}
}
