\relax 
\@writefile{toc}{\contentsline {chapter}{\numberline {3}Estudo Qualitativo}{19}}
\newlabel{cap_estudoqualitativo}{{3}{19}}
\@writefile{toc}{\contentsline {section}{\numberline {3.1}Metodologia}{19}}
\newlabel{sec_metodologia_estudo}{{3.1}{19}}
\@writefile{toc}{\contentsline {subsection}{\numberline {3.1.1}Defini\c c\~ao das quest\~oes do \textit  {survey} explorat\'orio}{19}}
\newlabel{subsec_questoes_pesquisa}{{3.1.1}{19}}
\@writefile{lof}{\contentsline {figure}{\numberline {2}{\ignorespaces Passos utilizados na metodologia do estudo qualitativo\relax }}{20}}
\newlabel{fig:metodologia_estudo}{{2}{20}}
\@writefile{toc}{\contentsline {subsection}{\numberline {3.1.2}Coleta de dados}{20}}
\newlabel{subsec_coleta_dados}{{3.1.2}{20}}
\gdef \LT@i {\LT@entry 
    {1}{98.15825pt}\LT@entry 
    {1}{97.75826pt}\LT@entry 
    {1}{97.75826pt}\LT@entry 
    {1}{0.0pt}}
\@writefile{toc}{\contentsline {subsubsection}{\numberline {3.1.2.1}Perfil dos participantes}{22}}
\newlabel{subsubsec_perfil_participantes}{{3.1.2.1}{22}}
\@writefile{lot}{\contentsline {table}{\numberline {1}{\ignorespaces Resumo dos participantes do estudo qualitativo.}}{22}}
\newlabel{table:participantes_estudo}{{1}{22}}
\@writefile{toc}{\contentsline {subsection}{\numberline {3.1.3}Codifica\c c\~ao}{23}}
\newlabel{subsec_codificacao}{{3.1.3}{23}}
\@writefile{toc}{\contentsline {section}{\numberline {3.2}Resultados}{24}}
\newlabel{sec_resultados_estudo}{{3.2}{24}}
\@writefile{toc}{\contentsline {subsection}{\numberline {3.2.1}Q1: Na opini\~ao dos desenvolvedores, quais as vantagens e desvantagens do mecanismo de tratamento de exce\c c\~oes?}{24}}
\newlabel{subsec_qp1}{{3.2.1}{24}}
\@writefile{toc}{\contentsline {subsection}{\numberline {3.2.2}Q2: Quais s\~ao os obst\'aculos enfrentados pelos programadores no momento da implementa\c c\~ao do c\'odigo do tratamento de exce\c c\~oes?}{27}}
\newlabel{subsec_qp2}{{3.2.2}{27}}
\@writefile{toc}{\contentsline {subsection}{\numberline {3.2.3}Q3: Quais s\~ao as pr\'aticas utilizadas pelo desenvolvedor para o tratamento de exce\c c\~oes na ind\'ustria de software?}{28}}
\newlabel{subsec_qp3}{{3.2.3}{28}}
\citation{wirfs2006toward}
\@writefile{toc}{\contentsline {section}{\numberline {3.3}Considera\c c\~oes finais}{31}}
\newlabel{sec_consideracoes_estudo}{{3.3}{31}}
\@setckpt{Capitulos/Capitulo3}{
\setcounter{page}{32}
\setcounter{equation}{0}
\setcounter{enumi}{4}
\setcounter{enumii}{0}
\setcounter{enumiii}{0}
\setcounter{enumiv}{0}
\setcounter{footnote}{1}
\setcounter{mpfootnote}{0}
\setcounter{part}{0}
\setcounter{chapter}{3}
\setcounter{section}{3}
\setcounter{subsection}{0}
\setcounter{subsubsection}{0}
\setcounter{paragraph}{0}
\setcounter{subparagraph}{0}
\setcounter{figure}{2}
\setcounter{table}{1}
\setcounter{parentequation}{0}
\setcounter{ABCIaux}{0}
\setcounter{ABCImax}{0}
\setcounter{float@type}{16}
\setcounter{algorithm}{0}
\setcounter{ALC@unique}{0}
\setcounter{ALC@line}{0}
\setcounter{ALC@rem}{0}
\setcounter{ALC@depth}{0}
\setcounter{LT@tables}{1}
\setcounter{LT@chunks}{1}
\setcounter{AM@survey}{0}
\setcounter{lstnumber}{1}
\setcounter{ContinuedFloat}{0}
\setcounter{lstlisting}{0}
}
