\relax 
\citation{radatz1990ieee}
\citation{de2008analyzing}
\citation{basili1994encyclopedia}
\citation{hunter1978statistics}
\citation{barbosa2012heuristic}
\@writefile{toc}{\contentsline {chapter}{\numberline {1}Introdu\c c\~ao}{9}}
\newlabel{introducao}{{1}{9}}
\citation{de2001exception}
\citation{kienzle2008exceptions}
\citation{ebert2013study}
\citation{abrantes2015specifying}
\citation{barbosaenforcing}
\citation{barbosa2012heuristic}
\citation{rahman2014use}
\@writefile{toc}{\contentsline {section}{\numberline {1.1}Problema}{10}}
\@writefile{toc}{\contentsline {section}{\numberline {1.2}Limita\c c\~oes das abordagens atuais}{10}}
\@writefile{toc}{\contentsline {section}{\numberline {1.3}Objetivos}{11}}
\@writefile{toc}{\contentsline {section}{\numberline {1.4}Contribui\c c\~oes}{11}}
\@writefile{toc}{\contentsline {section}{\numberline {1.5}Organiza\c c\~ao do Documento}{11}}
\@setckpt{Capitulos/Introducao}{
\setcounter{page}{13}
\setcounter{equation}{0}
\setcounter{enumi}{5}
\setcounter{enumii}{0}
\setcounter{enumiii}{0}
\setcounter{enumiv}{0}
\setcounter{footnote}{1}
\setcounter{mpfootnote}{0}
\setcounter{part}{0}
\setcounter{chapter}{1}
\setcounter{section}{5}
\setcounter{subsection}{0}
\setcounter{subsubsection}{0}
\setcounter{paragraph}{0}
\setcounter{subparagraph}{0}
\setcounter{figure}{0}
\setcounter{table}{0}
\setcounter{parentequation}{0}
\setcounter{ABCIaux}{0}
\setcounter{ABCImax}{0}
\setcounter{float@type}{16}
\setcounter{algorithm}{0}
\setcounter{ALC@unique}{0}
\setcounter{ALC@line}{0}
\setcounter{ALC@rem}{0}
\setcounter{ALC@depth}{0}
\setcounter{LT@tables}{0}
\setcounter{LT@chunks}{0}
\setcounter{AM@survey}{0}
\setcounter{lstnumber}{1}
\setcounter{ContinuedFloat}{0}
\setcounter{lstlisting}{0}
}
