\relax 
\@writefile{toc}{\contentsline {chapter}{Ap\^endice{} B{} -$\tmspace  -\thinmuskip {.1667em}$-{} C\'odigos mantidos ap\'os a codifica\c c\~ao seletiva}{83}}
\newlabel{apendice_coding}{{B}{83}}
\newlabel{fig:apendiceb_1}{{\caption@xref {fig:apendiceb_1}{ on input line 11}}{83}}
\newlabel{fig:apendiceb_2}{{\caption@xref {fig:apendiceb_2}{ on input line 20}}{84}}
\newlabel{fig:apendiceb_3}{{\caption@xref {fig:apendiceb_3}{ on input line 29}}{85}}
\@setckpt{Capitulos/ApendiceB}{
\setcounter{page}{86}
\setcounter{equation}{0}
\setcounter{enumi}{2}
\setcounter{enumii}{0}
\setcounter{enumiii}{0}
\setcounter{enumiv}{0}
\setcounter{footnote}{0}
\setcounter{mpfootnote}{0}
\setcounter{part}{0}
\setcounter{chapter}{2}
\setcounter{section}{0}
\setcounter{subsection}{0}
\setcounter{subsubsection}{0}
\setcounter{paragraph}{0}
\setcounter{subparagraph}{0}
\setcounter{figure}{15}
\setcounter{table}{8}
\setcounter{parentequation}{0}
\setcounter{ABCIaux}{0}
\setcounter{ABCImax}{0}
\setcounter{float@type}{16}
\setcounter{algorithm}{3}
\setcounter{ALC@unique}{48}
\setcounter{ALC@line}{16}
\setcounter{ALC@rem}{0}
\setcounter{ALC@depth}{0}
\setcounter{LT@tables}{8}
\setcounter{LT@chunks}{1}
\setcounter{AM@survey}{0}
\setcounter{lstnumber}{1}
\setcounter{ContinuedFloat}{0}
\setcounter{lstlisting}{0}
}
