\relax 
\@writefile{toc}{\contentsline {chapter}{\numberline {6}Trabalhos relacionados}{69}}
\newlabel{cap_relacionado}{{6}{69}}
\@writefile{toc}{\contentsline {section}{\numberline {6.1}Estudos qualitativos envolvendo desenvolvedores}{69}}
\newlabel{sec_qualitativo}{{6.1}{69}}
\citation{shah2008developers}
\citation{shah2010understanding}
\citation{shah2008developers}
\@writefile{toc}{\contentsline {section}{\numberline {6.2}Ferramentas para defini\c c\~ao e checagem de pol\IeC {\'\i }ticas de tratamento de exce\c c\~oes}{71}}
\newlabel{sec_politica}{{6.2}{71}}
\citation{barbosaenforcing}
\@writefile{toc}{\contentsline {section}{\numberline {6.3}Ferramentas de recomenda\c c\~ao}{73}}
\newlabel{sec_recomendacao}{{6.3}{73}}
\@setckpt{Capitulos/Capitulo6}{
\setcounter{page}{75}
\setcounter{equation}{0}
\setcounter{enumi}{16}
\setcounter{enumii}{0}
\setcounter{enumiii}{0}
\setcounter{enumiv}{0}
\setcounter{footnote}{0}
\setcounter{mpfootnote}{0}
\setcounter{part}{0}
\setcounter{chapter}{6}
\setcounter{section}{3}
\setcounter{subsection}{0}
\setcounter{subsubsection}{0}
\setcounter{paragraph}{0}
\setcounter{subparagraph}{0}
\setcounter{figure}{15}
\setcounter{table}{8}
\setcounter{parentequation}{0}
\setcounter{ABCIaux}{0}
\setcounter{ABCImax}{0}
\setcounter{float@type}{16}
\setcounter{algorithm}{3}
\setcounter{ALC@unique}{48}
\setcounter{ALC@line}{16}
\setcounter{ALC@rem}{0}
\setcounter{ALC@depth}{0}
\setcounter{LT@tables}{8}
\setcounter{LT@chunks}{1}
\setcounter{AM@survey}{0}
\setcounter{lstnumber}{1}
\setcounter{ContinuedFloat}{0}
\setcounter{lstlisting}{0}
}
