\relax 
\@writefile{toc}{\contentsline {chapter}{\numberline {3}Estudo Explorat\'orio}{25}}
\newlabel{cap_estudoqualitativo}{{3}{25}}
\@writefile{toc}{\contentsline {section}{\numberline {3.1}Contexto do estudo explorat\'orio}{25}}
\newlabel{subsec_contexto}{{3.1}{25}}
\gdef \LT@i {\LT@entry 
    {1}{98.15825pt}\LT@entry 
    {1}{69.3055pt}\LT@entry 
    {1}{97.75826pt}\LT@entry 
    {1}{69.3055pt}\LT@entry 
    {1}{69.3055pt}\LT@entry 
    {1}{0.0pt}}
\@writefile{lot}{\contentsline {table}{\numberline {1}{\ignorespaces Quantifica\c c\~ao do c\'odigo fonte dos SIGS}}{26}}
\newlabel{table:tamanho_sigs}{{1}{26}}
\@writefile{toc}{\contentsline {section}{\numberline {3.2}Defini\c c\~ao das quest\~oes de pesquisa}{26}}
\newlabel{sec_questoes_pesquisa}{{3.2}{26}}
\citation{charmaz2014constructing}
\@writefile{toc}{\contentsline {section}{\numberline {3.3}Entrevistas semiestruturadas}{27}}
\newlabel{sec_entrevistas}{{3.3}{27}}
\@writefile{lof}{\contentsline {figure}{\numberline {2}{\ignorespaces Passos utilizados para a coleta e an\'alise das entrevistas semiestruturadas\relax }}{28}}
\newlabel{fig:metodologia_estudo}{{2}{28}}
\@writefile{toc}{\contentsline {subsection}{\numberline {3.3.1}Coleta de dados}{28}}
\newlabel{subsec_coleta_dados}{{3.3.1}{28}}
\gdef \LT@ii {\LT@entry 
    {1}{98.15825pt}\LT@entry 
    {1}{183.11652pt}\LT@entry 
    {1}{97.75826pt}\LT@entry 
    {1}{0.0pt}}
\@writefile{toc}{\contentsline {subsection}{\numberline {3.3.2}Perfil dos participantes das entrevistas semiestruturadas}{30}}
\newlabel{subsec_perfil_participantes}{{3.3.2}{30}}
\@writefile{lot}{\contentsline {table}{\numberline {2}{\ignorespaces Resumo dos participantes do estudo.}}{30}}
\newlabel{table:participantes_estudo}{{2}{30}}
\@writefile{toc}{\contentsline {subsection}{\numberline {3.3.3}Codifica\c c\~ao}{31}}
\newlabel{subsec_codificacao}{{3.3.3}{31}}
\@writefile{toc}{\contentsline {subsection}{\numberline {3.3.4}QP1: Na opini\~ao dos desenvolvedores, quais as vantagens e desvantagens do mecanismo de tratamento de exce\c c\~oes?}{32}}
\newlabel{subsec_qp1}{{3.3.4}{32}}
\@writefile{toc}{\contentsline {subsection}{\numberline {3.3.5}QP2: Quais s\~ao os obst\'aculos enfrentados pelos programadores no momento da implementa\c c\~ao do c\'odigo de tratamento de exce\c c\~oes?}{34}}
\newlabel{subsec_qp2}{{3.3.5}{34}}
\@writefile{toc}{\contentsline {subsection}{\numberline {3.3.6}QP3: Quais s\~ao as pr\'aticas utilizadas pelo desenvolvedor para a implementa\c c\~ao do c\'odigo de tratamento de exce\c c\~oes na ind\'ustria de software?}{36}}
\newlabel{subsec_qp3}{{3.3.6}{36}}
\citation{wirfs2006toward}
\@writefile{toc}{\contentsline {section}{\numberline {3.4}\textit  {Survey} de valida\c c\~ao}{38}}
\newlabel{sec_survey_validacao}{{3.4}{38}}
\@writefile{lof}{\contentsline {figure}{\numberline {3}{\ignorespaces Tempo de experi\^encia profissional dos participantes do \textit  {survey} de valida\c c\~ao\relax }}{39}}
\newlabel{fig:participantes_survey}{{3}{39}}
\@writefile{toc}{\contentsline {subsection}{\numberline {3.4.1}Vantagens e desvantagens em utilizar mecanismos de tratamento de exce\c c\~oes}{39}}
\newlabel{sec_survey_rq1}{{3.4.1}{39}}
\citation{shah2008developers}
\@writefile{lof}{\contentsline {figure}{\numberline {4}{\ignorespaces Resultados do \textit  {survey} de valida\c c\~ao para a QP1\relax }}{40}}
\newlabel{fig:qp1_survey}{{4}{40}}
\@writefile{toc}{\contentsline {subsection}{\numberline {3.4.2}Obst\'aculos durante a implementa\c c\~ao do c\'odigo de tratamento de exce\c c\~oes}{41}}
\newlabel{sec_survey_rq2}{{3.4.2}{41}}
\@writefile{lof}{\contentsline {figure}{\numberline {5}{\ignorespaces Resultados do \textit  {survey} de valida\c c\~ao para a QP2\relax }}{41}}
\newlabel{fig:qp2_survey}{{5}{41}}
\@writefile{toc}{\contentsline {subsection}{\numberline {3.4.3}Pr\'aticas de desenvolvimento durante a implementa\c c\~ao do c\'odigo de tratamento de exce\c c\~oes}{43}}
\newlabel{sec_survey_rq3}{{3.4.3}{43}}
\@writefile{lof}{\contentsline {figure}{\numberline {6}{\ignorespaces Resultados do \textit  {survey} de valida\c c\~ao para a QP3\relax }}{43}}
\newlabel{fig:qp3_survey}{{6}{43}}
\citation{shah2010understanding}
\citation{barbosa2012heuristic}
\@writefile{toc}{\contentsline {section}{\numberline {3.5}An\'alise do c\'odigo fonte e \textit  {logs} do sistema}{45}}
\newlabel{sec_analise_codigo_estudo}{{3.5}{45}}
\@writefile{toc}{\contentsline {subsection}{\numberline {3.5.1}An\'alise est\'atica do c\'odigo fonte}{45}}
\gdef \LT@iii {\LT@entry 
    {1}{126.61101pt}\LT@entry 
    {1}{97.75826pt}\LT@entry 
    {1}{97.75826pt}\LT@entry 
    {1}{0.0pt}\LT@entry 
    {1}{0.0pt}}
\@writefile{lot}{\contentsline {table}{\numberline {3}{\ignorespaces Distribui\c c\~ao dos sinalizadores e tratadores nos SIGS}}{46}}
\newlabel{table:distribuicao_catch_throw_sigs}{{3}{46}}
\@writefile{toc}{\contentsline {subsection}{\numberline {3.5.2}Inspe\c c\~ao manual do c\'odigo}{47}}
\@writefile{toc}{\contentsline {subsection}{\numberline {3.5.3}An\'alise dos \textit  {logs} de exce\c c\~oes n\~ao capturadas}{47}}
\@writefile{toc}{\contentsline {section}{\numberline {3.6}Amea\c cas \`a validade}{48}}
\newlabel{sec_ameaca_validade}{{3.6}{48}}
\@writefile{toc}{\contentsline {section}{\numberline {3.7}Considera\c c\~oes finais}{49}}
\newlabel{sec_consideracoes_estudo}{{3.7}{49}}
\@setckpt{Capitulos/Capitulo3}{
\setcounter{page}{51}
\setcounter{equation}{0}
\setcounter{enumi}{16}
\setcounter{enumii}{0}
\setcounter{enumiii}{0}
\setcounter{enumiv}{0}
\setcounter{footnote}{2}
\setcounter{mpfootnote}{0}
\setcounter{part}{0}
\setcounter{chapter}{3}
\setcounter{section}{7}
\setcounter{subsection}{0}
\setcounter{subsubsection}{0}
\setcounter{paragraph}{0}
\setcounter{subparagraph}{0}
\setcounter{figure}{6}
\setcounter{table}{3}
\setcounter{parentequation}{0}
\setcounter{ABCIaux}{0}
\setcounter{ABCImax}{0}
\setcounter{float@type}{16}
\setcounter{algorithm}{0}
\setcounter{ALC@unique}{0}
\setcounter{ALC@line}{0}
\setcounter{ALC@rem}{0}
\setcounter{ALC@depth}{0}
\setcounter{LT@tables}{3}
\setcounter{LT@chunks}{1}
\setcounter{AM@survey}{0}
\setcounter{lstnumber}{1}
\setcounter{ContinuedFloat}{0}
\setcounter{lstlisting}{0}
}
