\relax 
\citation{abrantes2016tese}
\@writefile{toc}{\contentsline {chapter}{\numberline {4}Ferramenta Proposta: ExceptionPolicyExpert}{51}}
\newlabel{cap_ferramenta}{{4}{51}}
\@writefile{toc}{\contentsline {section}{\numberline {4.1}Ferramenta ECL/DAEH}{51}}
\newlabel{sec_ecl}{{4.1}{51}}
\citation{abrantes2016tese}
\citation{abrantes2016tese}
\citation{abrantes2016tese}
\@writefile{lof}{\contentsline {figure}{\numberline {7}{\ignorespaces Funcionamento da ferramenta ECL/DAEH. Fonte: \cite  {abrantes2016tese}\relax }}{52}}
\newlabel{fig:arq_ecl_daeh}{{7}{52}}
\@writefile{toc}{\contentsline {subsection}{\numberline {4.1.1}Linguagem ECL}{52}}
\newlabel{subsec_ecl}{{4.1.1}{52}}
\citation{abrantes2016tese}
\citation{abrantes2016tese}
\@writefile{lof}{\contentsline {figure}{\numberline {8}{\ignorespaces Exemplo de contrato especificado na linguagem ECL. Fonte: \cite  {abrantes2016tese}\relax }}{53}}
\newlabel{fig:ecl_exemplo}{{8}{53}}
\@writefile{toc}{\contentsline {section}{\numberline {4.2}Desenvolvimento da ExceptionPolicyExpert}{53}}
\newlabel{sec_desenvolveimento}{{4.2}{53}}
\@writefile{lof}{\contentsline {figure}{\numberline {9}{\ignorespaces Exemplo da constru\c c\~ao cannotHandle\relax }}{54}}
\newlabel{fig:cannot_handle_ferramenta}{{9}{54}}
\@writefile{lof}{\contentsline {figure}{\numberline {10}{\ignorespaces Vis\~ao geral da ferramenta ExceptionPolicyExpert\relax }}{54}}
\newlabel{fig:visao_geral_ferramenta}{{10}{54}}
\@writefile{toc}{\contentsline {section}{\numberline {4.3}Vis\~ao geral da ExceptionPolicyExpert}{54}}
\newlabel{sec_visao_geral}{{4.3}{54}}
\@writefile{lof}{\contentsline {figure}{\numberline {11}{\ignorespaces Diagrama de sequ\^encia das opera\c c\~oes do m\'odulo de verifica\c c\~oes\relax }}{55}}
\newlabel{fig:diag_seq_ferramenta}{{11}{55}}
\@writefile{toc}{\contentsline {section}{\numberline {4.4}M\'odulo de verifica\c c\~ao}{55}}
\newlabel{subsec_verif_ferramentas}{{4.4}{55}}
\gdef \LT@iv {\LT@entry 
    {1}{126.61101pt}\LT@entry 
    {1}{69.3055pt}\LT@entry 
    {1}{77.84142pt}\LT@entry 
    {1}{183.11652pt}\LT@entry 
    {1}{0.0pt}}
\@writefile{lot}{\contentsline {table}{\numberline {4}{\ignorespaces Resumo das verifica\c c\~oes realizadas pela ExceptionPolicyExpert.}}{56}}
\newlabel{table:verificacoes_ferramenta}{{4}{56}}
\@writefile{toc}{\contentsline {subsection}{\numberline {4.4.1}Exemplo de pol\IeC {\'\i }tica de tratamento de exce\c c\~oes especificada em ECL}{56}}
\newlabel{subsec_exemplo_ecl}{{4.4.1}{56}}
\@writefile{lof}{\contentsline {figure}{\numberline {12}{\ignorespaces Exemplo de pol\IeC {\'\i }tica de tratamento de exce\c c\~oes especificada em ECL\relax }}{57}}
\newlabel{fig:exemplo_ecl}{{12}{57}}
\@writefile{toc}{\contentsline {subsection}{\numberline {4.4.2}Sinaliza\c c\~ao indevida}{57}}
\newlabel{subsec_sinalizacao_indevida}{{4.4.2}{57}}
\@writefile{loa}{\contentsline {algorithm}{\numberline {1}{\ignorespaces Sinaliza\c c\~ao Indevida\relax }}{58}}
\newlabel{alg_sinalizacao_indevida}{{1}{58}}
\@writefile{lof}{\contentsline {figure}{\numberline {13}{\ignorespaces Verifica\c c\~ao de sinaliza\c c\~ao indevida\relax }}{58}}
\newlabel{fig:verificacao1}{{13}{58}}
\@writefile{toc}{\contentsline {subsection}{\numberline {4.4.3}Tratamento indevido}{58}}
\newlabel{subsec_trat_indevido}{{4.4.3}{58}}
\@writefile{loa}{\contentsline {algorithm}{\numberline {2}{\ignorespaces Tratamento Indevido\relax }}{59}}
\newlabel{alg_tratamento_indevido}{{2}{59}}
\@writefile{toc}{\contentsline {subsection}{\numberline {4.4.4}Poss\IeC {\'\i }veis tratadores}{59}}
\newlabel{subsec_possiveis_tratadores}{{4.4.4}{59}}
\@writefile{lof}{\contentsline {figure}{\numberline {14}{\ignorespaces Verifica\c c\~ao de tratamento indevido\relax }}{60}}
\newlabel{fig:verificacao2}{{14}{60}}
\@writefile{loa}{\contentsline {algorithm}{\numberline {3}{\ignorespaces Poss\IeC {\'\i }veis tratadores\relax }}{60}}
\newlabel{alg_possiveis_tratadores}{{3}{60}}
\@writefile{lof}{\contentsline {figure}{\numberline {15}{\ignorespaces Verifica\c c\~ao de poss\IeC {\'\i }veis tratadores\relax }}{61}}
\newlabel{fig:verificacao3}{{15}{61}}
\@writefile{toc}{\contentsline {section}{\numberline {4.5}Limita\c c\~ao da ferramenta proposta}{61}}
\newlabel{subsec_limitacao_ferramenta}{{4.5}{61}}
\@writefile{toc}{\contentsline {section}{\numberline {4.6}Considera\c c\~oes finais}{61}}
\newlabel{subsec_cons_finais_ferramenta}{{4.6}{61}}
\@setckpt{Capitulos/Capitulo4}{
\setcounter{page}{63}
\setcounter{equation}{0}
\setcounter{enumi}{16}
\setcounter{enumii}{0}
\setcounter{enumiii}{0}
\setcounter{enumiv}{0}
\setcounter{footnote}{1}
\setcounter{mpfootnote}{0}
\setcounter{part}{0}
\setcounter{chapter}{4}
\setcounter{section}{6}
\setcounter{subsection}{0}
\setcounter{subsubsection}{0}
\setcounter{paragraph}{0}
\setcounter{subparagraph}{0}
\setcounter{figure}{15}
\setcounter{table}{4}
\setcounter{parentequation}{0}
\setcounter{ABCIaux}{0}
\setcounter{ABCImax}{0}
\setcounter{float@type}{16}
\setcounter{algorithm}{3}
\setcounter{ALC@unique}{48}
\setcounter{ALC@line}{16}
\setcounter{ALC@rem}{0}
\setcounter{ALC@depth}{0}
\setcounter{LT@tables}{4}
\setcounter{LT@chunks}{1}
\setcounter{AM@survey}{0}
\setcounter{lstnumber}{1}
\setcounter{ContinuedFloat}{0}
\setcounter{lstlisting}{0}
}
