\relax 
\@writefile{toc}{\contentsline {chapter}{\numberline {5}Avalia\c c\~ao da Ferramenta ExceptionPolicyExpert}{63}}
\newlabel{cap_estudo}{{5}{63}}
\@writefile{toc}{\contentsline {section}{\numberline {5.1}Participantes e defini\c c\~ao da pol\IeC {\'\i }tica}{63}}
\newlabel{sec_participantes_estudo}{{5.1}{63}}
\@writefile{toc}{\contentsline {section}{\numberline {5.2}Coleta de dados do \textit  {log}}{63}}
\newlabel{sec_estudo_analise_log}{{5.2}{63}}
\gdef \LT@v {\LT@entry 
    {1}{126.61101pt}\LT@entry 
    {1}{126.21101pt}\LT@entry 
    {1}{183.11652pt}}
\@writefile{lot}{\contentsline {table}{\numberline {5}{\ignorespaces Quantidade de \textit  {warnings} exibidos durante a avalia\c c\~ao da ferramenta}}{64}}
\newlabel{table:resumo_numeros_estudo}{{5}{64}}
\@writefile{toc}{\contentsline {subsection}{\numberline {5.2.1}Sinaliza\c c\~ao Indevida}{64}}
\newlabel{subsec_sinalizacao_indevida_estudo}{{5.2.1}{64}}
\gdef \LT@vi {\LT@entry 
    {1}{69.70549pt}\LT@entry 
    {1}{126.21101pt}\LT@entry 
    {1}{183.11652pt}}
\citation{bloch2008effective}
\@writefile{lot}{\contentsline {table}{\numberline {6}{\ignorespaces Quantidade de sinaliza\c c\~oes indevidas encontradas}}{65}}
\newlabel{table:sinalizacao_indevida}{{6}{65}}
\@writefile{toc}{\contentsline {subsection}{\numberline {5.2.2}Tratamento Indevido}{65}}
\newlabel{subsec_tratamento_indevido_estudo}{{5.2.2}{65}}
\gdef \LT@vii {\LT@entry 
    {1}{69.70549pt}\LT@entry 
    {1}{126.21101pt}\LT@entry 
    {1}{183.11652pt}}
\gdef \LT@viii {\LT@entry 
    {1}{69.70549pt}\LT@entry 
    {1}{126.21101pt}\LT@entry 
    {1}{183.11652pt}}
\@writefile{lot}{\contentsline {table}{\numberline {7}{\ignorespaces Quantidade de tratamentos indevidos encontrados}}{66}}
\newlabel{table:tratamento_indevido}{{7}{66}}
\@writefile{toc}{\contentsline {subsection}{\numberline {5.2.3}Poss\IeC {\'\i }veis tratadores}{66}}
\newlabel{subsec_possiveis_tratadores_estudo}{{5.2.3}{66}}
\@writefile{lot}{\contentsline {table}{\numberline {8}{\ignorespaces Quantidade de poss\IeC {\'\i }veis tratadores identificados}}{66}}
\newlabel{table:possiveis_tratadores}{{8}{66}}
\@writefile{toc}{\contentsline {section}{\numberline {5.3}Opini\~ao dos usu\'arios}{67}}
\newlabel{sec_opiniao_usuarios}{{5.3}{67}}
\@writefile{toc}{\contentsline {section}{\numberline {5.4}Considera\c c\~oes finais}{68}}
\newlabel{sec_consideracao_final_estudo}{{5.4}{68}}
\@setckpt{Capitulos/Capitulo5}{
\setcounter{page}{69}
\setcounter{equation}{0}
\setcounter{enumi}{16}
\setcounter{enumii}{0}
\setcounter{enumiii}{0}
\setcounter{enumiv}{0}
\setcounter{footnote}{0}
\setcounter{mpfootnote}{0}
\setcounter{part}{0}
\setcounter{chapter}{5}
\setcounter{section}{4}
\setcounter{subsection}{0}
\setcounter{subsubsection}{0}
\setcounter{paragraph}{0}
\setcounter{subparagraph}{0}
\setcounter{figure}{15}
\setcounter{table}{8}
\setcounter{parentequation}{0}
\setcounter{ABCIaux}{0}
\setcounter{ABCImax}{0}
\setcounter{float@type}{16}
\setcounter{algorithm}{3}
\setcounter{ALC@unique}{48}
\setcounter{ALC@line}{16}
\setcounter{ALC@rem}{0}
\setcounter{ALC@depth}{0}
\setcounter{LT@tables}{8}
\setcounter{LT@chunks}{1}
\setcounter{AM@survey}{0}
\setcounter{lstnumber}{1}
\setcounter{ContinuedFloat}{0}
\setcounter{lstlisting}{0}
}
