\relax 
\citation{laprie1985dependable}
\citation{goodenough1975exception}
\@writefile{toc}{\contentsline {chapter}{\numberline {2}Fundamenta\c c\~ao Te\'orica}{18}}
\newlabel{cap_fundamentacao}{{2}{18}}
\@writefile{toc}{\contentsline {section}{\numberline {2.1}Tratamento de exce\c c\~oes}{18}}
\newlabel{sec_tratexc}{{2.1}{18}}
\citation{jakobus2015contrasting}
\@writefile{toc}{\contentsline {section}{\numberline {2.2}Tratamento de exce\c c\~oes em Java}{19}}
\newlabel{sec_tratexc_java}{{2.2}{19}}
\citation{stol2016grounded}
\citation{stol2016grounded}
\@writefile{lof}{\contentsline {figure}{\numberline {1}{\ignorespaces Hierarquia de algumas classes Java que representam exce\c c\~oes\relax }}{20}}
\providecommand*\caption@xref[2]{\@setref\relax\@undefined{#1}}
\newlabel{fig:classes_excecoes_java}{{1}{20}}
\@writefile{toc}{\contentsline {section}{\numberline {2.3}\textit  {Grounded Theory}}{20}}
\newlabel{sec_gt}{{2.3}{20}}
\citation{charmaz2014constructing}
\citation{montoni2010investigaccao}
\citation{charmaz2014constructing}
\citation{stol2016grounded}
\citation{charmaz2014constructing}
\citation{ng2008grounded}
\citation{glaser1967discovery}
\citation{montoni2010investigaccao}
\@writefile{toc}{\contentsline {subsection}{\numberline {2.3.1}Vers\~oes da \textit  {Grounded Theory}}{22}}
\newlabel{subsec_versoes_gt}{{2.3.1}{22}}
\citation{charmaz2014constructing}
\citation{charmaz2014constructing}
\citation{charmaz2014constructing}
\citation{charmaz2014constructing}
\@writefile{toc}{\contentsline {subsection}{\numberline {2.3.2}Coleta de dados}{23}}
\newlabel{subsec_coleta_gt}{{2.3.2}{23}}
\@writefile{toc}{\contentsline {subsection}{\numberline {2.3.3}Codificac\~ao}{23}}
\newlabel{subsec_codificacao_gt}{{2.3.3}{23}}
\@setckpt{Capitulos/Capitulo2}{
\setcounter{page}{25}
\setcounter{equation}{0}
\setcounter{enumi}{4}
\setcounter{enumii}{0}
\setcounter{enumiii}{0}
\setcounter{enumiv}{0}
\setcounter{footnote}{2}
\setcounter{mpfootnote}{0}
\setcounter{part}{0}
\setcounter{chapter}{2}
\setcounter{section}{3}
\setcounter{subsection}{3}
\setcounter{subsubsection}{0}
\setcounter{paragraph}{0}
\setcounter{subparagraph}{0}
\setcounter{figure}{1}
\setcounter{table}{0}
\setcounter{parentequation}{0}
\setcounter{ABCIaux}{0}
\setcounter{ABCImax}{0}
\setcounter{float@type}{16}
\setcounter{algorithm}{0}
\setcounter{ALC@unique}{0}
\setcounter{ALC@line}{0}
\setcounter{ALC@rem}{0}
\setcounter{ALC@depth}{0}
\setcounter{LT@tables}{0}
\setcounter{LT@chunks}{0}
\setcounter{AM@survey}{0}
\setcounter{lstnumber}{1}
\setcounter{ContinuedFloat}{0}
\setcounter{lstlisting}{0}
}
