\relax 
\citation{shah2010understanding}
\@writefile{toc}{\contentsline {chapter}{\numberline {7}Considera\c c\~oes Finais}{75}}
\newlabel{cap_consideracoes}{{7}{75}}
\@writefile{toc}{\contentsline {section}{\numberline {7.1}Trabalhos futuros}{76}}
\newlabel{sec_trab_futuros}{{7.1}{76}}
\@setckpt{Capitulos/Consideracoes}{
\setcounter{page}{78}
\setcounter{equation}{0}
\setcounter{enumi}{16}
\setcounter{enumii}{0}
\setcounter{enumiii}{0}
\setcounter{enumiv}{0}
\setcounter{footnote}{0}
\setcounter{mpfootnote}{0}
\setcounter{part}{0}
\setcounter{chapter}{7}
\setcounter{section}{1}
\setcounter{subsection}{0}
\setcounter{subsubsection}{0}
\setcounter{paragraph}{0}
\setcounter{subparagraph}{0}
\setcounter{figure}{15}
\setcounter{table}{8}
\setcounter{parentequation}{0}
\setcounter{ABCIaux}{0}
\setcounter{ABCImax}{0}
\setcounter{float@type}{16}
\setcounter{algorithm}{3}
\setcounter{ALC@unique}{48}
\setcounter{ALC@line}{16}
\setcounter{ALC@rem}{0}
\setcounter{ALC@depth}{0}
\setcounter{LT@tables}{8}
\setcounter{LT@chunks}{1}
\setcounter{AM@survey}{0}
\setcounter{lstnumber}{1}
\setcounter{ContinuedFloat}{0}
\setcounter{lstlisting}{0}
}
