\select@language {brazil}
\contentsline {table}{\numberline {1}{\ignorespaces Resumo dos participantes do estudo qualitativo.}}{22}
\contentsline {table}{\numberline {2}{\ignorespaces Resumos das verifica\c c\~oes realizadas pela ExceptionPolicyExpert.}}{38}
\contentsline {table}{\numberline {3}{\ignorespaces Vari\'aveis dependentes e independentes do estudo.}}{43}
