\relax 
\citation{greiler2012test}
\citation{shah2008developers}
\citation{shah2008visualization}
\@writefile{toc}{\contentsline {chapter}{\numberline {6}Trabalhos relacionados}{47}}
\newlabel{cap_relacionado}{{6}{47}}
\@writefile{toc}{\contentsline {section}{\numberline {6.1}Estudos qualitativos envolvendo desenvolvedores}{47}}
\newlabel{sec_qualitativo}{{6.1}{47}}
\citation{shah2010understanding}
\citation{shah2008developers}
\@writefile{toc}{\contentsline {section}{\numberline {6.2}Ferramentas para defini\c c\~ao e checagem de pol\IeC {\'\i }ticas de tratamento de exce\c c\~oes}{49}}
\newlabel{sec_politica}{{6.2}{49}}
\citation{barbosaenforcing}
\citation{barbosaenforcing}
\@writefile{toc}{\contentsline {section}{\numberline {6.3}Ferramentas de recomenda\c c\~ao}{51}}
\newlabel{sec_recomendacao}{{6.3}{51}}
\citation{barbosa2012heuristic}
\citation{barbosa2015mastering}
\citation{rahman2014use}
\@setckpt{Capitulos/Capitulo6}{
\setcounter{page}{53}
\setcounter{equation}{0}
\setcounter{enumi}{4}
\setcounter{enumii}{0}
\setcounter{enumiii}{0}
\setcounter{enumiv}{0}
\setcounter{footnote}{0}
\setcounter{mpfootnote}{0}
\setcounter{part}{0}
\setcounter{chapter}{6}
\setcounter{section}{3}
\setcounter{subsection}{0}
\setcounter{subsubsection}{0}
\setcounter{paragraph}{0}
\setcounter{subparagraph}{0}
\setcounter{figure}{13}
\setcounter{table}{3}
\setcounter{parentequation}{0}
\setcounter{ABCIaux}{0}
\setcounter{ABCImax}{0}
\setcounter{float@type}{16}
\setcounter{algorithm}{0}
\setcounter{ALC@unique}{0}
\setcounter{ALC@line}{0}
\setcounter{ALC@rem}{0}
\setcounter{ALC@depth}{0}
\setcounter{LT@tables}{3}
\setcounter{LT@chunks}{1}
\setcounter{AM@survey}{0}
\setcounter{lstnumber}{1}
\setcounter{ContinuedFloat}{0}
\setcounter{lstlisting}{0}
}
