\relax 
\citation{melo2013depth}
\citation{abrantes2016tese}
\@writefile{toc}{\contentsline {chapter}{\numberline {4}Ferramenta Proposta: ExceptionPolicyExpert}{32}}
\newlabel{cap_ferramenta}{{4}{32}}
\citation{abrantes2016tese}
\citation{abrantes2016tese}
\citation{abrantes2016tese}
\@writefile{toc}{\contentsline {section}{\numberline {4.1}Ferramenta ECL/DAEH}{33}}
\newlabel{sec_ecl}{{4.1}{33}}
\@writefile{lof}{\contentsline {figure}{\numberline {3}{\ignorespaces Funcionamento da ferramenta ECL/DAEH. Fonte: \cite  {abrantes2016tese}\relax }}{33}}
\newlabel{fig:arq_ecl_daeh}{{3}{33}}
\@writefile{toc}{\contentsline {subsection}{\numberline {4.1.1}Linguagem ECL}{33}}
\newlabel{subsec_ecl}{{4.1.1}{33}}
\citation{abrantes2016tese}
\citation{abrantes2016tese}
\citation{melo2013depth}
\@writefile{lof}{\contentsline {figure}{\numberline {4}{\ignorespaces Exemplo de contrato especificado na linguagem ECL. Fonte: \cite  {abrantes2016tese}\relax }}{34}}
\newlabel{fig:ecl_exemplo}{{4}{34}}
\@writefile{toc}{\contentsline {section}{\numberline {4.2}Ferramenta PLEA}{34}}
\newlabel{sec_plea}{{4.2}{34}}
\@writefile{lof}{\contentsline {figure}{\numberline {5}{\ignorespaces Exemplo de XML representando o fluxo de exce\c c\~oes\relax }}{35}}
\newlabel{fig:plea_exemplo}{{5}{35}}
\@writefile{toc}{\contentsline {section}{\numberline {4.3}Desenvolvimento da ExceptionPolicyExpert}{35}}
\newlabel{sec_desenvolveimento}{{4.3}{35}}
\@writefile{lof}{\contentsline {figure}{\numberline {6}{\ignorespaces Exemplo da constru\c c\~ao cannotHandler\relax }}{36}}
\newlabel{fig:cannot_handle_ferramenta}{{6}{36}}
\@writefile{toc}{\contentsline {section}{\numberline {4.4}Vis\~ao Geral da ExceptionPolicyExpert}{36}}
\newlabel{sec_visao_geral}{{4.4}{36}}
\@writefile{lof}{\contentsline {figure}{\numberline {7}{\ignorespaces Vis\~ao geral da ferramenta ExceptionPolicyExpert\relax }}{36}}
\newlabel{fig:visao_geral_ferramenta}{{7}{36}}
\@writefile{lof}{\contentsline {figure}{\numberline {8}{\ignorespaces Diagrama de sequ\^encia das opera\c c\~oes do m\'odulo de recomenda\c c\~oes\relax }}{37}}
\newlabel{fig:diag_seq_ferramenta}{{8}{37}}
\@writefile{toc}{\contentsline {section}{\numberline {4.5}M\'odulo de recomenda\c c\~ao}{37}}
\newlabel{subsec_verif_ferramentas}{{4.5}{37}}
\gdef \LT@ii {\LT@entry 
    {1}{98.15825pt}\LT@entry 
    {1}{83.53188pt}\LT@entry 
    {1}{69.3055pt}\LT@entry 
    {1}{77.84142pt}\LT@entry 
    {1}{97.75826pt}\LT@entry 
    {1}{0.0pt}}
\@writefile{lot}{\contentsline {table}{\numberline {2}{\ignorespaces Resumos das verifica\c c\~oes realizadas pela ExceptionPolicyExpert.}}{38}}
\newlabel{table:verificacoes_ferramenta}{{2}{38}}
\@writefile{toc}{\contentsline {subsection}{\numberline {4.5.1}Sinaliza\c c\~ao Indevida}{38}}
\newlabel{subsec_sinalizacao_indevida}{{4.5.1}{38}}
\@writefile{lof}{\contentsline {figure}{\numberline {9}{\ignorespaces Verifica\c c\~ao de sinaliza\c c\~ao indevida\relax }}{39}}
\newlabel{fig:verificacao1}{{9}{39}}
\@writefile{toc}{\contentsline {subsection}{\numberline {4.5.2}Tratamento Indevido}{39}}
\newlabel{subsec_trat_indevido}{{4.5.2}{39}}
\@writefile{toc}{\contentsline {subsection}{\numberline {4.5.3}Tratamento Indevido para par Sinalizador-Tratador}{39}}
\newlabel{subsec_trat_indevido_par}{{4.5.3}{39}}
\@writefile{lof}{\contentsline {figure}{\numberline {10}{\ignorespaces Verifica\c c\~ao de tratamento indevido\relax }}{40}}
\newlabel{fig:verificacao2}{{10}{40}}
\@writefile{toc}{\contentsline {subsection}{\numberline {4.5.4}Poss\IeC {\'\i }veis tratadores}{40}}
\newlabel{subsec_possiveis_tratadores}{{4.5.4}{40}}
\@writefile{lof}{\contentsline {figure}{\numberline {11}{\ignorespaces Verifica\c c\~ao de tratamento indevido para par sinalizador-tratador\relax }}{41}}
\newlabel{fig:verificacao3}{{11}{41}}
\@writefile{lof}{\contentsline {figure}{\numberline {12}{\ignorespaces Verifica\c c\~ao de poss\IeC {\'\i }veis tratadores\relax }}{41}}
\newlabel{fig:verificacao4}{{12}{41}}
\@setckpt{Capitulos/Capitulo4}{
\setcounter{page}{42}
\setcounter{equation}{0}
\setcounter{enumi}{4}
\setcounter{enumii}{0}
\setcounter{enumiii}{0}
\setcounter{enumiv}{0}
\setcounter{footnote}{0}
\setcounter{mpfootnote}{0}
\setcounter{part}{0}
\setcounter{chapter}{4}
\setcounter{section}{5}
\setcounter{subsection}{4}
\setcounter{subsubsection}{0}
\setcounter{paragraph}{0}
\setcounter{subparagraph}{0}
\setcounter{figure}{12}
\setcounter{table}{2}
\setcounter{parentequation}{0}
\setcounter{ABCIaux}{0}
\setcounter{ABCImax}{0}
\setcounter{float@type}{16}
\setcounter{algorithm}{0}
\setcounter{ALC@unique}{0}
\setcounter{ALC@line}{0}
\setcounter{ALC@rem}{0}
\setcounter{ALC@depth}{0}
\setcounter{LT@tables}{2}
\setcounter{LT@chunks}{1}
\setcounter{AM@survey}{0}
\setcounter{lstnumber}{1}
\setcounter{ContinuedFloat}{0}
\setcounter{lstlisting}{0}
}
