\relax 
\citation{shah2010understanding}
\@writefile{toc}{\contentsline {chapter}{\numberline {7}Considera\c c\~oes Finais e Planejamento}{53}}
\newlabel{cap_consideracoes}{{7}{53}}
\@writefile{lof}{\contentsline {figure}{\numberline {14}{\ignorespaces Planejamento do trabalho\relax }}{55}}
\newlabel{fig:planejamento}{{14}{55}}
\@setckpt{Capitulos/Consideracoes}{
\setcounter{page}{56}
\setcounter{equation}{0}
\setcounter{enumi}{4}
\setcounter{enumii}{0}
\setcounter{enumiii}{0}
\setcounter{enumiv}{0}
\setcounter{footnote}{0}
\setcounter{mpfootnote}{0}
\setcounter{part}{0}
\setcounter{chapter}{7}
\setcounter{section}{0}
\setcounter{subsection}{0}
\setcounter{subsubsection}{0}
\setcounter{paragraph}{0}
\setcounter{subparagraph}{0}
\setcounter{figure}{14}
\setcounter{table}{3}
\setcounter{parentequation}{0}
\setcounter{ABCIaux}{0}
\setcounter{ABCImax}{0}
\setcounter{float@type}{16}
\setcounter{algorithm}{0}
\setcounter{ALC@unique}{0}
\setcounter{ALC@line}{0}
\setcounter{ALC@rem}{0}
\setcounter{ALC@depth}{0}
\setcounter{LT@tables}{3}
\setcounter{LT@chunks}{1}
\setcounter{AM@survey}{0}
\setcounter{lstnumber}{1}
\setcounter{ContinuedFloat}{0}
\setcounter{lstlisting}{0}
}
